TIME LIMIT = 60
EXE = ./release/track1

Test          tests1/instance001.gr:           (time 0:00.00 )     sol_value=    503,  opt_value=    503, ratio=1.000000, OPT        OK
Test          tests1/instance003.gr:           (time 0:00.03 )     sol_value=     73,  opt_value=     73, ratio=1.000000, OPT        OK
Test          tests1/instance005.gr:           (time 0:00.29 )     sol_value=     15,  opt_value=     15, ratio=1.000000, OPT        OK
Test          tests1/instance007.gr:           (time 0:00.00 )     sol_value=   1239,  opt_value=   1239, ratio=1.000000, OPT        OK
Test          tests1/instance009.gr:           (time 0:00.00 )     sol_value=    926,  opt_value=    926, ratio=1.000000, OPT        OK
Test          tests1/instance011.gr:           (time 0:00.00 )     sol_value=     23,  opt_value=     23, ratio=1.000000, OPT        OK
Test          tests1/instance013.gr:           (time 0:00.10 )     sol_value=   4033,  opt_value=   4033, ratio=1.000000, OPT        OK
Test          tests1/instance015.gr:           (time 0:00.07 )     sol_value=   3438,  opt_value=   3438, ratio=1.000000, OPT        OK
Test          tests1/instance017.gr:           (time 0:00.11 )     sol_value=   4006,  opt_value=   4006, ratio=1.000000, OPT        OK
Test          tests1/instance019.gr:           (time 0:00.26 )     sol_value=   2465,  opt_value=   2465, ratio=1.000000, OPT        OK
Test          tests1/instance021.gr:           (time 0:00.21 )     sol_value=   2171,  opt_value=   2171, ratio=1.000000, OPT        OK
Test          tests1/instance023.gr:           (time 0:01.18 )     sol_value=   1749,  opt_value=   1749, ratio=1.000000, OPT        OK
Test          tests1/instance025.gr:           (time 0:01.20 )     sol_value=   1754,  opt_value=   1754, ratio=1.000000, OPT        OK
Test          tests1/instance027.gr:           (time 0:00.03 )     sol_value=    188,  opt_value=    188, ratio=1.000000, OPT        OK
Test          tests1/instance029.gr:           (time 0:00.05 )     sol_value=    245,  opt_value=    245, ratio=1.000000, OPT        OK
Test          tests1/instance031.gr:           (time 0:00.08 )     sol_value=    311,  opt_value=    311, ratio=1.000000, OPT        OK
Test          tests1/instance033.gr:           (time 0:00.08 )     sol_value=    319,  opt_value=    319, ratio=1.000000, OPT        OK
Test          tests1/instance035.gr:           (time 0:00.16 )     sol_value=    581,  opt_value=    581, ratio=1.000000, OPT        OK
Test          tests1/instance037.gr:           (time 0:00.18 )     sol_value=    566,  opt_value=    566, ratio=1.000000, OPT        OK
Test          tests1/instance039.gr:           (time 0:00.19 )     sol_value=    604,  opt_value=    604, ratio=1.000000, OPT        OK
Test          tests1/instance041.gr:           (time 0:00.23 )     sol_value=    594,  opt_value=    594, ratio=1.000000, OPT        OK
Test          tests1/instance043.gr:           (time 0:00.24 )     sol_value=    604,  opt_value=    604, ratio=1.000000, OPT        OK
Test          tests1/instance045.gr:           (time 0:00.37 )     sol_value=    823,  opt_value=    823, ratio=1.000000, OPT        OK
Test          tests1/instance047.gr:           (time 0:00.96 )     sol_value=    145,  opt_value=    145, ratio=1.000000, OPT        OK
Test          tests1/instance049.gr:           (time 0:00.75 )     sol_value=   1550,  opt_value=   1550, ratio=1.000000, OPT        OK
Test          tests1/instance051.gr:           (time 0:02.01 )     sol_value=     67,  opt_value=     67, ratio=1.000000, OPT        OK
Test          tests1/instance053.gr:           (time 0:00.04 )     sol_value=1100361,  opt_value=1100361, ratio=1.000000, OPT        OK
Test          tests1/instance055.gr:           (time 0:00.06 )     sol_value=    311,  opt_value=    311, ratio=1.000000, OPT        OK
Test          tests1/instance057.gr:           (time 0:00.08 )     sol_value=    353,  opt_value=    353, ratio=1.000000, OPT        OK
Test          tests1/instance059.gr:           (time 0:00.09 )     sol_value=    564,  opt_value=    564, ratio=1.000000, OPT        OK
Test          tests1/instance061.gr:           (time 0:00.22 )     sol_value=    350,  opt_value=    350, ratio=1.000000, OPT        OK
Test          tests1/instance063.gr:           (time 0:00.20 )     sol_value=    621,  opt_value=    621, ratio=1.000000, OPT        OK
Test          tests1/instance065.gr:           (time 0:00.33 )     sol_value=    508,  opt_value=    508, ratio=1.000000, OPT        OK
Test          tests1/instance067.gr:           (time 0:02.42 )     sol_value=   6673,  opt_value=   6673, ratio=1.000000, OPT        OK
Test          tests1/instance069.gr:           (time 0:00.07 )     sol_value=   3271,  opt_value=   3271, ratio=1.000000, OPT        OK
Test          tests1/instance071.gr:           (time 0:00.23 )     sol_value=    344,  opt_value=    344, ratio=1.000000, OPT        OK
Test          tests1/instance073.gr:           (time 0:00.39 )     sol_value=    386,  opt_value=    386, ratio=1.000000, OPT        OK
Test          tests1/instance075.gr:           (time 0:00.96 )     sol_value=   5250,  opt_value=   5250, ratio=1.000000, OPT        OK
Test          tests1/instance077.gr:           (time 0:03.02 )     sol_value=   6618,  opt_value=   6618, ratio=1.000000, OPT        OK
Test          tests1/instance079.gr:           (time 0:07.50 )     sol_value=   1459,  opt_value=   1459, ratio=1.000000, OPT        OK
Test          tests1/instance081.gr:           (time 0:00.15 )     sol_value=1300798,  opt_value=1300798, ratio=1.000000, OPT        OK
Test          tests1/instance083.gr:           (time 0:00.63 )     sol_value=    457,  opt_value=    457, ratio=1.000000, OPT        OK
Test          tests1/instance085.gr:           (time 0:00.14 )     sol_value=     20,  opt_value=     20, ratio=1.000000, OPT        OK
Test          tests1/instance087.gr:           (time 0:00.19 )     sol_value=     36,  opt_value=     36, ratio=1.000000, OPT        OK
Test          tests1/instance089.gr:           (time 0:02.36 )     sol_value=    550,  opt_value=    550, ratio=1.000000, OPT        OK
Test          tests1/instance091.gr:           (time 0:03.50 )     sol_value=    714,  opt_value=    714, ratio=1.000000, OPT        OK
Test          tests1/instance093.gr:           (time 0:00.86 )     sol_value=   1348,  opt_value=   1348, ratio=1.000000, OPT        OK
Test          tests1/instance095.gr:           (time 0:02.68 )     sol_value=    399,  opt_value=    399, ratio=1.000000, OPT        OK
Test          tests1/instance097.gr:           (time 0:10.49 )     sol_value=    745,  opt_value=    745, ratio=1.000000, OPT        OK
Test          tests1/instance099.gr:           (time 0:02.96 )     sol_value=1500405,  opt_value=1500405, ratio=1.000000, OPT        OK
Test          tests1/instance101.gr:           (time 0:15.63 )     sol_value=1601190,  opt_value=1601190, ratio=1.000000, OPT        OK
Test          tests1/instance103.gr:           (time 0:24.18 )     sol_value=    393,  opt_value=    393, ratio=1.000000, OPT        OK
Test          tests1/instance105.gr:           (time 0:44.06 )     sol_value=    847,  opt_value=    847, ratio=1.000000, OPT        OK
Test          tests1/instance107.gr:           (time 0:52.87 )     sol_value=    848,  opt_value=    848, ratio=1.000000, OPT        OK
Test          tests1/instance109.gr:           (time 1:00.00 )    TIMEOUT
Test          tests1/instance111.gr:           (time 1:00.01 )    TIMEOUT
Test          tests1/instance113.gr:           (time 1:00.04 )    TIMEOUT
Test          tests1/instance115.gr:           (time 0:16.85 )     sol_value=    210,  opt_value=    210, ratio=1.000000, OPT        OK
Test          tests1/instance117.gr:           (time 0:36.62 )     sol_value=    254,  opt_value=    254, ratio=1.000000, OPT        OK
Test          tests1/instance119.gr:           (time 0:55.55 )     sol_value=    370,  opt_value=    370, ratio=1.000000, OPT        OK
Test          tests1/instance121.gr:           (time 1:00.00 )    TIMEOUT
Test          tests1/instance123.gr:           (time 1:00.02 )    TIMEOUT
Test          tests1/instance125.gr:           (time 1:00.00 )    TIMEOUT
Test          tests1/instance127.gr:           (time 1:00.04 )    TIMEOUT
Test          tests1/instance129.gr:           (time 1:00.08 )    TIMEOUT
Test          tests1/instance131.gr:           (time 1:00.01 )    TIMEOUT
Test          tests1/instance133.gr:           (time 1:00.02 )    TIMEOUT
Test          tests1/instance135.gr:           (time 1:17.47 )    TIMEOUT
Test          tests1/instance137.gr:           (time 1:00.16 )    TIMEOUT
Test          tests1/instance139.gr:           (time 1:00.04 )    TIMEOUT
Test          tests1/instance141.gr:           (time 1:00.02 )    TIMEOUT
Test          tests1/instance143.gr:           (time 1:12.49 )    TIMEOUT
Test          tests1/instance145.gr:           (time 1:00.01 )    TIMEOUT
Test          tests1/instance147.gr:           (time 1:16.90 )    TIMEOUT
Test          tests1/instance149.gr:           (time 1:11.35 )    TIMEOUT
Test          tests1/instance151.gr:           (time 1:18.75 )    TIMEOUT
Test          tests1/instance153.gr:           (time 1:10.24 )    TIMEOUT
Test          tests1/instance155.gr:           (time 1:00.03 )    TIMEOUT
Test          tests1/instance157.gr:           (time 1:08.56 )    TIMEOUT
Test          tests1/instance159.gr:           (time 1:08.06 )    TIMEOUT
Test          tests1/instance161.gr:           (time 1:20.07 )    TIMEOUT
Test          tests1/instance163.gr:           (time 1:19.48 )    TIMEOUT
Test          tests1/instance165.gr:           (time 1:14.59 )    TIMEOUT
Test          tests1/instance167.gr:           (time 1:13.84 )    TIMEOUT
Test          tests1/instance169.gr:           (time 1:07.21 )    TIMEOUT
Test          tests1/instance171.gr:           (time 1:00.20 )    TIMEOUT
Test          tests1/instance173.gr:           (time 1:04.15 )    TIMEOUT
Test          tests1/instance175.gr:           (time 0:01.47 )      No VALUE line, read instead: :(        WRONG
Test          tests1/instance177.gr:           (time 0:00.02 )      No VALUE line, read instead: :(        WRONG
Test          tests1/instance179.gr:           (time 0:00.27 )      No VALUE line, read instead: :(        WRONG
Test          tests1/instance181.gr:           (time 0:00.65 )      No VALUE line, read instead: :(        WRONG
Test          tests1/instance183.gr:           (time 0:00.07 )      No VALUE line, read instead: :(        WRONG
Test          tests1/instance185.gr:           (time 0:00.23 )      No VALUE line, read instead: :(        WRONG
Test          tests1/instance187.gr:           (time 0:00.20 )      No VALUE line, read instead: :(        WRONG
Test          tests1/instance189.gr:           (time 0:00.50 )      No VALUE line, read instead: :(        WRONG
Test          tests1/instance191.gr:           (time 0:00.09 )      No VALUE line, read instead: :(        WRONG
Test          tests1/instance193.gr:           (time 0:00.10 )      No VALUE line, read instead: :(        WRONG
Test          tests1/instance195.gr:           (time 0:00.11 )      No VALUE line, read instead: :(        WRONG
Test          tests1/instance197.gr:           (time 0:00.17 )      No VALUE line, read instead: :(        WRONG
Test          tests1/instance199.gr:           (time 0:00.28 )      No VALUE line, read instead: :(        WRONG
-----------------------
Passed 57 out of 100
