filename,vertices,edges,terminals,max weight,sum of weights,approximation,before (2017-12-22-233127),dp table index swap (2017-12-25-093311),heap to set (2017-12-25-101331),root in last terminal (2017-12-25-104755)
tests1/instance101.gr,311,579,16,100000,4707884,3001237,0:15.35,0:04.95,0:05.52,0:04.26
tests1/instance103.gr,402,690,16,13,6090,411,0:23.39,0:08.73,0:08.38,0:06.72
tests1/instance105.gr,712,1217,16,13,10765,913,0:43.58,0:13.56,0:14.11,0:11.67
tests1/instance107.gr,837,1438,16,13,12742,923,0:52.52,0:16.51,0:16.98,0:13.30
tests1/instance109.gr,1051,1791,16,13,15859,1057,1:08.21,0:21.55,0:21.83,0:17.25
tests1/instance111.gr,1848,3286,16,13,29046,1024,2:10.19,0:40.44,0:38.34,0:30.13
tests1/instance113.gr,6405,10454,16,13,92422,2324,7:51.71,2:15.48,2:21.71,1:51.79
tests1/instance115.gr,122,194,17,13,1698,215,0:16.22,0:06.68,0:06.86,0:05.05
tests1/instance117.gr,220,374,17,13,3318,254,0:36.30,0:12.83,0:11.95,0:09.12
tests1/instance119.gr,310,514,17,13,4554,401,0:54.73,0:16.96,0:16.82,0:13.01
tests1/instance121.gr,343,559,17,13,4899,508,1:01.68,0:18.99,0:18.59,0:14.26
tests1/instance123.gr,2039,3548,17,13,31852,1194,7:17.33,2:06.79,1:54.94,1:27.74
tests1/instance125.gr,211,380,18,100000,5304465,3401429,1:53.29,0:32.78,0:34.48,0:21.63
tests1/instance127.gr,1709,2963,18,13,25855,969,18:33.53,5:06.02,4:55.79,3:07.41
tests1/instance129.gr,3738,7013,18,13,62969,1683,42:27.59,11:02.04,10:33.59,7:01.25
tests1/instance131.gr,189,353,19,100000,6702060,3600320,4:13.73,1:14.69,1:16.07,0:59.19
